{
    "extensionDescription": {
        "message": "モダンなウェブブラウザーのための KeePassXC 統合",
        "description": "Name of the extension."
    },
    "addSitePreferenceButtonTitle": {
        "message": "この URL にサイト設定を追加します。",
        "description": "Add button title text on Site Preferences tab."
    },
    "allowIframeButtonTitle": {
        "message": "現在のページにクロスオリジン iframe を許可する。",
        "description": "Allow Cross-Origin iframes button title text."
    },
    "connectButtonTitle": {
        "message": "現在アクティブなデータベースをKeePassXC-Browser に接続します。",
        "description": "Connect button title text."
    },
    "copyDebugInfoButtonTitle": {
        "message": "デバッグ情報をクリップボードにコピーします。",
        "description": "Copy debug info button title text on About tab."
    },
    "dismissHttpAuthButtonTitle": {
        "message": "Basic 認証を解除する。",
        "description": "Dismiss HTTP Auth button title text."
    },
    "reconnectButtonTitle": {
        "message": "現在アクティブなデータベースを KeePassXC-Browser に再接続します。",
        "description": "Reconnect button title text."
    },
    "redetectButtonTitle": {
        "message": "ページのすべての入力フィールドを再検出します。",
        "description": "Redetect login fields button title text."
    },
    "reloadButtonTitle": {
        "message": "拡張機能を再読み込みして KeePassXC に再接続します。",
        "description": "Reload button title text."
    },
    "removeConnectedDatabaseButtonTitle": {
        "message": "接続されているデータベースを KeePassXC-Browser から削除します。",
        "description": "Remove button title on Connected Databases tab."
    },
    "removeCustomLoginFieldsButtonTitle": {
        "message": "この URL のカスタムログインフィールドを削除します。",
        "description": "Remove button title on Custom Login Fields tab."
    },
    "removeSitePreferencesButtonTitle": {
        "message": "この URL のサイト設定を削除します。",
        "description": "Remove button title on Site Preferences tab."
    },
    "reopenDatabaseButtonTitle": {
        "message": "現在のアクティブなデータベースを再開する。",
        "description": "Reopen database button title text."
    },
    "usernameButtonTitle": {
        "message": "ユーザー名のみ検出オプションを現在のページに追加します。",
        "description": "Add Username-only detection button title text."
    },
    "contextMenuFillUsernameAndPassword": {
        "message": "ユーザー名とパスワードを入力",
        "description": "Context menu item for filling both username and password."
    },
    "contextMenuFillPassword": {
        "message": "パスワードのみ入力",
        "description": "Context menu item for filling password."
    },
    "contextMenuFillTOTP": {
        "message": "TOTP を入力",
        "description": "Context menu item for filling Time-based One Time Password."
    },
    "contextMenuShowPasswordGeneratorIcons": {
        "message": "パスワード生成アイコンを表示",
        "description": "Show password generator icon on every password input field."
    },
    "contextMenuSaveCredentials": {
        "message": "資格情報を保存",
        "description": "Save credentials using the credential banner."
    },
    "contextMenuShowPasswordGenerator": {
        "message": "パスワードジェネレーターを表示",
        "description": "Show password generator text."
    },
    "contextMenuFillAttribute": {
        "message": "属性を入力…",
        "description": "Context menu parent item for filling a custom attribute."
    },
    "contextMenuRequestGlobalAutoType": {
        "message": "グローバル自動入力を要求",
        "description": "Global Auto-Type shortcut text."
    },
    "multipleCredentialsDetected": {
        "message": "HTTP 認証で複数の資格情報が検出されました。拡張機能のアイコンをクリックして正しいものを選択してください。",
        "description": "Notification when HTTP Authentication has multiple credentials detected."
    },
    "errorMessageUnknown": {
        "message": "不明なエラーです。",
        "description": "Unknown error."
    },
    "errorMessageDatabaseNotOpened": {
        "message": "データベースが開かれていません。",
        "description": "Database not opened."
    },
    "errorMessageDatabaseHash": {
        "message": "データベースハッシュを受信しませんでした。",
        "description": "Database hash not received."
    },
    "errorMessageClientPublicKey": {
        "message": "クライアントの公開鍵を受信しませんでした。",
        "description": "Client public key not received."
    },
    "errorMessageDecrypt": {
        "message": "メッセージを復号できません。",
        "description": "Cannot decrypt message."
    },
    "errorMessageTimeout": {
        "message": "KeePassXC に接続できません。KeePassXC の設定でブラウザー統合が有効になっているか確認してください。",
        "description": "Cannot connect to KeePassXC. Check that browser integration is enabled in KeePassXC settings."
    },
    "errorMessageCanceled": {
        "message": "アクションがキャンセルまたは拒否されました。",
        "description": "Action canceled or denied."
    },
    "errorMessageEncrypt": {
        "message": "メッセージの暗号化に失敗しました。KeePassXC を実行していますか？",
        "description": "Message encryption failed. Is KeePassXC running?"
    },
    "errorMessageAssociate": {
        "message": "KeePassXC のアソシエーションに失敗しました。再試行してください。",
        "description": "KeePassXC association failed, try again."
    },
    "errorMessageKeyExchange": {
        "message": "鍵交換が成功しませんでした。",
        "description": "Key exchange was not successful."
    },
    "errorMessageEncryptionKey": {
        "message": "暗号化キーが認識されません。",
        "description": "Encryption key is not recognized."
    },
    "errorMessageSavedDatabases": {
        "message": "保存されたデータベースが見つかりません。",
        "description": "No saved databases found."
    },
    "errorMessageIncorrectAction": {
        "message": "不正確なアクションです。",
        "description": "Incorrect action."
    },
    "errorMessageEmptyMessage": {
        "message": "空のメッセージを受信しました。",
        "description": "Empty message received."
    },
    "errorMessageNoURL": {
        "message": "URL がありません。",
        "description": "No URL provided."
    },
    "errorMessageNoLogins": {
        "message": "ログイン情報が見つかりません。",
        "description": "No logins found."
    },
    "errorMessagePaswordLengthExceeded": {
        "message": "フィールドに設定された上限を超えた長さのパスワードが入力されました。",
        "description": "Error notification text shown when filled password is longer than defined maxLength of the input field."
    },
    "errorMessageNoGroupsFound": {
        "message": "グループが見つかりませんでした。",
        "description": "No groups found."
    },
    "errorMessageCannotCreateNewGroup": {
        "message": "新しいグループを作成できません。",
        "description": "Cannot create new group."
    },
    "errorMessageNoValidUuidProvided": {
        "message": "有効な UUID が提供されませんでした。",
        "description": "No valid UUID provided."
    },
    "errorMessageAccessToAllEntriesDenied": {
        "message": "すべてのエントリーへのアクセスが拒否されました。",
        "description": "Access to all entries denied."
    },
    "errorMessagePasskeysAttestationNotSupported": {
        "message": "対応していない認証です。",
        "description": "Attestation not supported."
    },
    "errorMessagePasskeysCredentialIsExcluded": {
        "message": "認証情報が除外されています。",
        "description": "Credential is excluded."
    },
    "errorMessagePasskeysRequestCanceled": {
        "message": "パスキーリクエストがキャンセルされました。",
        "description": "Passkeys request canceled."
    },
    "errorMessagePasskeysInvalidUserVerification": {
        "message": "無効なユーザー認証です。",
        "description": "Invalid user verification."
    },
    "errorMessagePasskeysEmptyPublicKey": {
        "message": "公開鍵が空白です。",
        "description": "Empty public key."
    },
    "errorMessagePasskeysInvalidUrlProvided": {
        "message": "無効な URL が指定されました。",
        "description": "Invalid URL provided."
    },
    "errorMessagePasskeysOriginNotAllowed": {
        "message": "オリジンが空である、または許可されていません。",
        "description": "Origin is empty or not allowed."
    },
    "errorMessagePasskeysDomainNotValid": {
        "message": "Effective domain is not a valid domain.",
        "description": "Effective domain is not a valid domain."
    },
    "errorMessagePasskeysDomainRpIdMismatch": {
        "message": "オリジンと RP ID が一致しません。",
        "description": "Origin and RP ID do not match."
    },
    "errorMessagePasskeysNoSupportedAlgorithms": {
        "message": "No supported algorithms were provided.",
        "description": "No supported algorithms were provided."
    },
    "errorMessagePasskeysWaitforLifeTimer": {
        "message": "タイマーの終了を待つ。",
        "description": "Wait for timer to expire."
    },
    "errorMessagePasskeysUnknownError": {
        "message": "不明なパスキーのエラーです。",
        "description": "Unknown passkeys error."
    },
    "errorMessagePasskeysInvalidChallenge": {
        "message": "チャレンジの長さが必要最低限より短い",
        "description": "Challenge is shorter than required minimum length."
    },
    "errorMessagePasskeysInvalidUserId": {
        "message": "user.id does not match the required length.",
        "description": "user.id does not match the required length."
    },
    "errorMessagePasskeysContextIsNotSecure": {
        "message": "Context is not secure.",
        "description": "Context is not secure."
    },
    "errorNotConnected": {
        "message": "KeePassXC に接続していません。",
        "description": "Error notification shown when not connected to KeePassXC."
    },
    "errorCurrentDatabaseNotConnected": {
        "message": "現在のデータベースには接続されていません。",
        "description": "Error notification shown when current database is not connected during action."
    },
    "passwordGeneratorErrorTooLong": {
        "message": "エラー: 許可された長さよりも長いパスワードが生成されました！",
        "description": "A warning text shown in the password generator."
    },
    "passwordGeneratorErrorTooLongCut": {
        "message": "超えた部分はカットします。",
        "description": "A warning text shown in the password generator."
    },
    "passwordGeneratorErrorTooLongRemember": {
        "message": "新しいパスワードを忘れないようにしてください。",
        "description": "A warning text shown in the password generator."
    },
    "passwordGeneratorGenerateText": {
        "message": "パスワードを生成",
        "description": "Password icon title text."
    },
    "passwordGeneratorNotSupported": {
        "message": "このバージョンの KeePassXC はパスワードジェネレーターの起動に対応していません。最新の KeePassXC にアップデートしてください。"
    },
    "usernameFieldText": {
        "message": "KeePassXC から認証情報を補完します。",
        "description": "Username field icon hover text."
    },
    "usernameFieldTextNoCredentials": {
        "message": "補完できる資格情報がありません。",
        "description": "Username field icon hover text when no credentials are."
    },
    "usernameLockedFieldText": {
        "message": "データベースがロックされています。",
        "description": "Username field icon hover text when database is locked."
    },
    "usernameDisconnectedFieldText": {
        "message": "KeePassXC に接続していません。",
        "description": "Username field icon hover text when KeePassXC is disconnected."
    },
    "totp": {
        "message": "TOTP",
        "description": "TOTP text."
    },
    "totpFieldText": {
        "message": "KeePassXC から TOTP を入力",
        "description": "OTP field icon hover text."
    },
    "defineClose": {
        "message": "閉じる",
        "description": "Close button text when choosing Custom Login Fields."
    },
    "defineSkip": {
        "message": "スキップ",
        "description": "Skip button text when choosing Custom Login Fields."
    },
    "defineMore": {
        "message": "さらに表示",
        "description": "More button text when choosing Custom Login Fields."
    },
    "defineReset": {
        "message": "元に戻す",
        "description": "Reset button text when choosing Custom Login Fields."
    },
    "defineConfirm": {
        "message": "確認",
        "description": "Confirm button text when choosing Custom Login Fields."
    },
    "defineAlreadySelected": {
        "message": "このページのログインフィールドは既に選択されているため上書きされます。",
        "description": "A text shown when custom credentials fields are already set for the page."
    },
    "defineClearData": {
        "message": "保存したデータを消去",
        "description": "Clear save data button text when choosing Custom Login Fields."
    },
    "defineStringField": {
        "message": "文字列フィールド",
        "description": "Text for string field."
    },
    "defineChooseUsername": {
        "message": "ユーザー名フィールドを選択してください",
        "description": "Choosing a username field text when choosing Custom Login Fields."
    },
    "defineChoosePassword": {
        "message": "パスワードフィールドを選択してください",
        "description": "Choosing a password field text when choosing Custom Login Fields."
    },
    "defineChooseTOTP": {
        "message": "TOTP フィールドを選択してください",
        "description": "Choosing a TOTP field text when choosing Custom Login Fields."
    },
    "defineChooseStringFields": {
        "message": "文字列フィールドを選択してください",
        "description": "Choose String Fields a selection text when choosing Custom Login Fields."
    },
    "defineHelpText": {
        "message": "選択したものを確認するか、文字列フィールドとして別のフィールドを追加で選択してください。",
        "description": "Confirm a selection text when choosing Custom Login Fields which contains string fields."
    },
    "defineKeyboardText": {
        "message": "キーボードの数字キーで入力フィールドを選択できます。",
        "description": "Help text when choosing Custom Login Fields."
    },
    "defineChooseCustomLoginFieldText": {
        "message": "カスタムログインフィールドを選択",
        "description": "Help text for Custom Login Field banner."
    },
    "username": {
        "message": "ユーザー名",
        "description": "General text for username."
    },
    "password": {
        "message": "パスワード",
        "description": "General text for password."
    },
    "stringFields": {
        "message": "文字列フィールド",
        "description": "General text for a String Fields."
    },
    "credentialsNoUsername": {
        "message": "- ユーザー名なし -",
        "description": "Shown when no username is set in the credentials."
    },
    "credentialsNoLoginsFound": {
        "message": "ログイン情報が見つかりません。",
        "description": "Shown when no credentials are found for the current page."
    },
    "credentialsMultipleFound": {
        "message": "KeePassXC に複数のログイン情報が見つかりました！",
        "description": "Alert message when trying to fill username and/or password when multiple credentials are found."
    },
    "credentialsMultipleFoundSecondLine": {
        "message": "KeePassXC-Browser のアイコンをクリックすると、その他のオプションを確認できます。",
        "description": "Alert message when trying to fill username and/or password when multiple credentials are found."
    },
    "credentialsNoUsernameFound": {
        "message": "ユーザー名の資格情報が見つかりません。",
        "description": "Alert message when no credentials are found for the given username."
    },
    "credentialsNoTOTPFound": {
        "message": "TOTP が見つかりません。",
        "description": "Alert message when no TOTP is found."
    },
    "credentialExpired": {
        "message": "期限切れ",
        "description": "If a credential is expired, this is appended to the title label."
    },
    "fieldsFill": {
        "message": "エラー: 入力するフィールドを見つけられません。",
        "description": "Alert message when no fields are found to fill in."
    },
    "fieldsNoPasswordField": {
        "message": "エラー: パスワードフィールドを見つけられません。",
        "description": "Message shown when no password fields are found."
    },
    "fieldsPasswordFillNotAccepted": {
        "message": "プレーンテキストフィールドへのパスワード入力は許可されていません。",
        "description": "Message shown when password fill to a plain text field is prevented."
    },
    "rememberNothingChanged": {
        "message": "エラー: 変更された資格情報を検出できませんでした。",
        "description": "Message shown when trying to save credentials that haven't changed."
    },
    "popupTitle": {
        "message": "KeePassXC - ポップアップ",
        "description": "Popup window title."
    },
    "popupSettingsText": {
        "message": "設定",
        "description": "Popup Settings button text."
    },
    "popupChooseCredentialsText": {
        "message": "カスタムログインフィールドを選択",
        "description": "Popup credential choosing button text."
    },
    "popupConnectButton": {
        "message": "接続",
        "description": "Popup Connect button text."
    },
    "popupReconnectButton": {
        "message": "再接続",
        "description": "Popup Reconnect button text."
    },
    "popupRedetectButton": {
        "message": "ログインフィールドを再検出",
        "description": "Popup Redetect login fields button text."
    },
    "popupReloadButton": {
        "message": "再読み込み",
        "description": "Popup Reload button text."
    },
    "popupReopenButton": {
        "message": "データベースを再度開く",
        "description": "Popup reopen database button text."
    },
    "popupUsernameButton": {
        "message": "サイト用の「ユーザー名のみ」オプションを追加",
        "description": "Button text for adding Username-only option."
    },
    "popupAllowIframeButton": {
        "message": "サイトのクロスオリジン iframe を許可する",
        "description": "Button text for allowing Cross-Origin iframes option."
    },
    "popupErrorEncountered": {
        "message": "エラーが発生しました:",
        "description": "A text shown above error message in the popup."
    },
    "popupUpdateAvailable": {
        "message": "KeePassXC の古いバージョンを使用しています。",
        "description": "Popup warning message about old version of KeePassXC."
    },
    "popupDownloadNewVersion": {
        "message": "keepassxc.org から最新バージョンをダウンロードしてください",
        "description": "Popup warning message link when KeePassXC version is not up-to-date."
    },
    "popupGettingStartedText": {
        "message": "初めて使用する場合はスタートガイドを確認してみてください。",
        "description": "Popup information message about Getting Started Guide."
    },
    "popupGettingStartedLinkText": {
        "message": "スタートガイド - ブラウザー統合のセットアップ",
        "description": "Popup Getting Started Guide link text."
    },
    "popupAlertHide": {
        "message": "非表示にして今後表示しない。",
        "description": "Hide alert close button title."
    },
    "popupTroubleshootingText": {
        "message": "KeePassXC に接続できない場合は Wiki ページを確認してみてください。",
        "description": "Popup information message about Troubleshooting Guide."
    },
    "popupTroubleshootingLinkText": {
        "message": "トラブルシューティングガイド",
        "description": "Popup Troubleshooting Guide link text."
    },
    "popupCheckingStatus": {
        "message": "ステータスをチェック中...",
        "description": "Checking status message in popup."
    },
    "popupNotConfigured": {
        "message": "KeePassXC-Browser はまだ設定されていません。接続ボタンをクリックして KeePassXC とペアリングしてください。",
        "description": "A popup message shown when the extension has not been connected to KeePassXC."
    },
    "popupNeedReconfigure": {
        "message": "KeePassXC-Browser が KeePassXC から切断されました。",
        "description": "A popup message shown when the extension has been disconnected from KeePassXC."
    },
    "popupNeedReconfigureMessage": {
        "message": "再接続ボタンをクリックすると新しい接続を確立します。",
        "description": "A popup message shown when reconnect is needed."
    },
    "popupConfiguredNotAssociated": {
        "message": "KeePassXC-Browser はまだ KeePassXC に接続していませんが、次の識別子を使用する設定になっています: $1",
        "description": "A popup message shown when KeePassXC is not connected but configured."
    },
    "popupConfiguredAndAssociated": {
        "message": "KeePassXC-Browser は KeePassXC に接続しており、次の識別子を使用する設定になっています: $1",
        "description": "A popup message when a connection to KeePassXC is successful."
    },
    "popupUsernameFieldDetected": {
        "message": "単一のユーザー名フィールドのみを検出しました。「ユーザー名のみ」オプションを有効にして URL をサイト設定に追加しますか？",
        "description": "Text shown when page can be added to Site Preferences with Username-only option enabled."
    },
    "popupIframeDetected": {
        "message": "クロスオリジン iframe を検出しました。クロスオリジン iframe を許可して、URL をサイト設定に追加しますか？",
        "description": "Text shown when page can be added to Site Preferences with Allow Cross-Origin iframes option enabled."
    },
    "rememberInfoText": {
        "message": "ユーザー名またはパスワードが変更されました。保存しますか？",
        "description": "Message when username or password has changed."
    },
    "rememberSaving": {
        "message": "資格情報を識別子 $1 の接続済みデータベースに保存しました",
        "description": "A message when saving or updating credentials."
    },
    "rememberNewUsername": {
        "message": "次のユーザー名は現在保存していません: $1",
        "description": "A message shown when a new username is detected when saving credentials."
    },
    "rememberUsernameExists": {
        "message": "使用したユーザー名の資格情報は太字でマークします: $1",
        "description": "A message shown when an existing username is detected when saving credentials."
    },
    "rememberChooseCredentials": {
        "message": "更新する資格情報を選択してください。",
        "description": "A message shown choosing what credentials user wants to update."
    },
    "rememberChooseGroup": {
        "message": "新しい資格情報を保存するグループを選択してください。",
        "description": "A message shown choosing what group user wants to use for new credentials."
    },
    "rememberInfoDefaultGroupNotFound": {
        "message": "接続済みデータベースにデフォルトグループを作成しました。",
        "description": "Info message shown when default group set cannot be found."
    },
    "rememberErrorCreatingNewGroup": {
        "message": "新しいグループを作成できません。",
        "description": "Error message shown when new groups cannot be created."
    },
    "rememberErrorPasswordNotChanged": {
        "message": "資格情報を更新しません。パスワードは変更されていません。",
        "description": "Error message shown when credential password is not changed."
    },
    "rememberErrorCannotSaveCredentials": {
        "message": "資格情報を保存または更新できません。",
        "description": "Error message shown when credentials cannot be saved or updated."
    },
    "rememberErrorDatabaseClosed": {
        "message": "データベースが閉じられているため資格情報を保存または更新できません。",
        "description": "Error message shown when credentials cannot be saved or updated and the database is closed."
    },
    "rememberCredentialsNotSaved": {
        "message": "作業をキャンセルしました。資格情報は更新されません。",
        "description": "Message shown when saving operation was cancelled."
    },
    "rememberCredentialsSaved": {
        "message": "ユーザー名 $1 の新しい資格情報を保存しました。",
        "description": "Message shown when new credentials are saved."
    },
    "rememberCredentialsUpdated": {
        "message": "ユーザー名 $1 の資格情報を更新しました。",
        "description": "Message shown when new credentials are successfully updated."
    },
    "rememberCredentialsExists": {
        "message": "同一の資格情報が既に存在します。更新しません。",
        "description": "Message shown when new credentials already found in database."
    },
    "rememberEmptyUsername": {
        "message": "(空)",
        "description": "Means an empty username."
    },
    "rememberNoPassword": {
        "message": "資格情報を保存する前にパスワードフィールドに入力してください。",
        "description": "Message shown when no password is set when saving credentials."
    },
    "popupLoginText": {
        "message": "ページに入力するログイン情報を選択してください。",
        "description": "A popup message shown when one or multiple credentials are present."
    },
    "popupFilterText": {
        "message": "絞り込み:",
        "description": "Text for login credentials quick filter."
    },
    "popupAuthText": {
        "message": "いずれかのログイン情報を選択してください。",
        "description": "A popup message shown when doing HTTP Authentication with multiple credentials present."
    },
    "popupMultiplePasswordFields": {
        "message": "このページで複数のパスワードフィールドが見つかりました。それらのパスワードフィールドで右クリックし、次の中から選択してください:",
        "description": "A popup message shown when web page has multiple password fields."
    },
    "popupUsername": {
        "message": "ユーザー名:",
        "description": "A username field name shown on credential update."
    },
    "popupButtonNew": {
        "message": "新規",
        "description": "New button text in popup when updating credentials."
    },
    "popupButtonUpdate": {
        "message": "更新",
        "description": "Update button text in popup when updating credentials."
    },
    "popupButtonCancel": {
        "message": "キャンセル",
        "description": "Cancel button text in popup when updating credentials."
    },
    "popupButtonBack": {
        "message": "戻る",
        "description": "Back button text in popup when updating credentials."
    },
    "popupButtonIgnore": {
        "message": "このサイトでは確認しない",
        "description": "Ignore button text in popup or in notification when updating credentials."
    },
    "popupButtonClose": {
        "message": "閉じる",
        "description": "Close button text in popup or in notification."
    },
    "popupButtonDismissHttpAuth": {
        "message": "棄却してデフォルトの認証ダイアログを表示します",
        "description": "Dismiss button text when in HTTP Authentication popup."
    },
    "optionsTitle": {
        "message": "設定 | KeePassXC-Browser",
        "description": "Options page title."
    },
    "optionsGeneralSettingsTab": {
        "message": "一般設定",
        "description": "General Settings tab text."
    },
    "optionsConnectedDatabasesTab": {
        "message": "接続済みデータベース",
        "description": "Connected Databases tab text."
    },
    "optionsCustomFieldsTab": {
        "message": "カスタムログインフィールド",
        "description": "Saved Custom Login Fields tab text."
    },
    "optionsSitePreferencesTab": {
        "message": "サイト設定",
        "description": "Site Preferences fields tab text."
    },
    "optionsAboutTab": {
        "message": "情報",
        "description": "About tab text."
    },
    "optionsMenuGeneral": {
        "message": "一般",
        "description": "General settings page header."
    },
    "optionsMenuConnectedDatabases": {
        "message": "接続済みデータベース",
        "description": "Connected Databases page header."
    },
    "optionsMenuCustomFields": {
        "message": "カスタムログインフィールド",
        "description": "Custom Login Fields page header."
    },
    "optionsMenuSitePreferences": {
        "message": "サイト設定",
        "description": "Site Preferences page header."
    },
    "optionsMenuAbout": {
        "message": "情報",
        "description": "About page header."
    },
    "optionsConfigureShortcuts": {
        "message": " ショートカットを設定",
        "description": "Keyboard shortcut button and title text."
    },
    "optionsButtonSave": {
        "message": "保存",
        "description": "Save button text."
    },
    "optionsButtonConnect": {
        "message": "接続",
        "description": "Connect button text."
    },
    "optionsButtonRemove": {
        "message": "削除",
        "description": "Remove button text."
    },
    "optionsButtonAdd": {
        "message": "追加",
        "description": "Add button text."
    },
    "optionsButtonUpdate": {
        "message": "更新を確認",
        "description": "Check for updates button text."
    },
    "optionsButtonRemoveNow": {
        "message": "はい、今すぐ削除します",
        "description": "Confirm button text when removing database key or Custom Login Fields."
    },
    "optionsButtonCancel": {
        "message": "キャンセル",
        "description": "Cancel button text when removing database key or Custom Login Fields."
    },
    "optionsButtonReset": {
        "message": "元に戻す",
        "description": "Reset button text for keyboard shortcuts."
    },
    "optionsButtonImport": {
        "message": "設定をインポート",
        "description": "Import settings button text."
    },
    "optionsButtonExport": {
        "message": "設定をエクスポート",
        "description": "Export settings button text."
    },
    "optionsLabelDefaultGroup": {
        "message": "新しいパスワードを保存するデフォルトのグループ:",
        "description": "Default group options text."
    },
    "optionsDefaultGroupHelpText": {
        "message": "グループはスラッシュで区切ってください (例: グループ/子グループ)。",
        "description": "Default group help text."
    },
    "optionsLabelDefaultPasskeyGroup": {
        "message": "新しいパスキーを保存するデフォルトのグループ:",
        "description": "Default passkey group options text."
    },
    "optionsLabelDefaultGroupCheckboxText": {
        "message": "新しい資格情報をどこに保存するか常に確認する",
        "description": "Default group checkbox help text."
    },
    "optionsLabelDefaultGroupCheckboxHelpText": {
        "message": "有効にすると、グループの一覧をポップアップ表示します。",
        "description": "Default checkbox explanation help text."
    },
    "optionsCheckboxUsePasswordGenerator": {
        "message": "パスワード生成アイコンを有効にする",
        "description": "Activate password generator icons checkbox text."
    },
    "optionsCheckboxUsernameIcons": {
        "message": "ユーザー名フィールドアイコンを有効にする",
        "description": "Activate username field icons textbox text."
    },
    "optionsUseObserver": {
        "message": "入力フィールドの動的検出を使用する",
        "description": "Use dynamic input field detection checkbox text."
    },
    "optionsUseObserverHelpText": {
        "message": "ポップアップや動的ダイアログを使用するページで役立ちます。低スペックなマシンでは、無効にすると CPU 負荷を抑えられます。無効にした場合、資格情報の入力は、キーボードショートカット、コンテキストメニュー、拡張機能のポップアップを使用してください。",
        "description": "Use dynamic input field detection help text."
    },
    "optionsCheckboxOTPIcons": {
        "message": "2FA/OTP フィールドアイコンを有効にする",
        "description": "Activate OTP field icons textbox text."
    },
    "optionsCheckboxAutoRetrieveCredentials": {
        "message": "資格情報を自動的に読み込む",
        "description": "Automatically retrieve credentials checkbox text."
    },
    "optionsCheckboxAutomaticReconnect": {
        "message": "KeePassXC へ自動的に再接続する",
        "description": "Auto-reconnect checkbox text."
    },
    "optionsAutomaticReconnectWarning": {
        "message": "警告！これは実験段階の機能です。自己責任で使用してください。",
        "description": "Auto-reconnect warning message."
    },
    "optionsCheckboxAutoFillSingleEntry": {
        "message": "単一の資格情報エントリーに自動入力する",
        "description": "Automatically fill-in single credential entry checkbox text."
    },
    "optionsCheckboxAutoFillRelevantCredential": {
        "message": "Automatically fill in relevant credential entries",
        "description": "Automatically fill-in relevant credential entry checkbox text."
    },
    "optionsCheckboxAutoFillSingleTotp": {
        "message": "単一の TOTP エントリーに自動入力する",
        "description": "Automatically fill-in single TOTP entries checkbox text."
    },
    "optionsCheckboxAutoCompleteUsernames": {
        "message": "ユーザー名フィールドの自動補完を有効にする",
        "description": "Activate autocomplete for username fields checkbox text."
    },
    "optionsCheckboxShowGroupNameInAutocomplete": {
        "message": "異なるグループから資格情報を取得した場合は、自動補完一覧にグループ名を表示する",
        "description": "Show group name in autocomplete checkbox text."
    },
    "optionsCheckboxAutoSubmit": {
        "message": "ログインフォームの自動送信",
        "description": "Auto-submit checkbox text."
    },
    "optionsAutoSubmitHelpText": {
        "message": "選択した資格情報を自動送信します。これは単一エントリーの自動入力では無効になります。",
        "description": "Auto-submit help text."
    },
    "optionsCheckboxShowNotifications": {
        "message": "通知を表示する",
        "description": "Show notifications checkbox text."
    },
    "optionsCheckboxUseMonochromeToolbarIcon": {
        "message": "モノクロのツールバーアイコンを使用する",
        "description": "Use monochrome toolbar icon checkbox text."
    },
    "optionsCheckboxUseCompactMode": {
        "message": "コンパクトモードを使用する",
        "description": "Whether the compact mode (legacy dropdown) should be enabled."
    },
    "optionsSaveDomainOnly": {
        "message": "ドメインのみ保存する",
        "description": "Save domain only checkbox text."
    },
    "optionsCheckboxShowLoginNotifications": {
        "message": "新しい資格情報をデータベースに保存できる場合、ページ上にバナーを表示する",
        "description": "Show login notifications checkbox text."
    },
    "optionsRedirectAllowance": {
        "message": "許可するリダイレクト数: $1",
        "description": "Redirect allowance range input text."
    },
    "optionsRedirectAllowanceHelpText": {
        "message": "バナーの表示を終了するまでのリダイレクトの数です。既定の値は 3 で最大に設定すると無制限になります。",
        "description": "Redirect allowance help text."
    },
    "optionsCheckboxAutoFillAndSend": {
        "message": "HTTP Basic 認証の資格情報の入力を許可する",
        "description": "Allow filling HTTP Basic Auth credentials checkbox text."
    },
    "optionsDebugLogging": {
        "message": "デバッグログ",
        "description": "Debug logging checkbox text."
    },
    "optionsDebugLoggingHelpText": {
        "message": "デバッグログを有効にします。追加のコンソールメッセージがバックグラウンドスクリプトとコンテンツスクリプトの両方に表示されます。",
        "description": "Debug logging help text."
    },
    "optionsRadioText": {
        "message": "KeePassXC の更新確認:",
        "description": "Text above radio buttons in the settings page."
    },
    "optionsRadioThreeDays": {
        "message": "3 日ごと",
        "description": "Radio button text."
    },
    "optionsRadioWeek": {
        "message": "毎週",
        "description": "Radio button text."
    },
    "optionsRadioMonth": {
        "message": "毎月",
        "description": "Radio button text."
    },
    "optionsRadioNever": {
        "message": "しない",
        "description": "Radio button text."
    },
    "optionsThemeSelectionHeader": {
        "message": "カラーテーマ",
        "description": "Theme selection header text."
    },
    "optionsCredentialSortSelectionHeader": {
        "message": "一致した資格情報の並び順",
        "description": "Credential sort option header text."
    },
    "optionsThemeSelection": {
        "message": "カラーテーマの選択",
        "description": "Theme selection title text."
    },
    "optionsThemeSystem": {
        "message": "システム",
        "description": "System theme text."
    },
    "optionsThemeDark": {
        "message": "ダーク",
        "description": "Dark theme text."
    },
    "optionsThemeLight": {
        "message": "ライト",
        "description": "Light theme text."
    },
    "optionsKeyboardShortcutsHeader": {
        "message": "キーボードショートカット",
        "description": "Keyboard shortcut header text."
    },
    "optionsUsePasswordGeneratorHelpText": {
        "message": "新しいパスワードを生成するアイコンをパスワードフィールドに追加します。",
        "description": "Password Generator option help text."
    },
    "optionsUsePasswordGeneratorHelpTextSecond": {
        "message": "パスワードは KeePassXC のパスワード生成プロファイルを使用して生成されます。",
        "description": "Password Generator option help text, second part."
    },
    "optionsPredefinedSiteList": {
        "message": "事前定義されたサイト",
        "description": "Predefined site list details button text."
    },
    "optionsUsePredefinedSites": {
        "message": "互換性のために事前定義されたサイトを使用する",
        "description": "Use predefined sites checkbox text."
    },
    "optionsUsePredefinedSitesHelpText": {
        "message": "ユーザー名のみのログインフォームがあるサイトをサイト設定に追加します。",
        "description": "Use predefined sites option help text."
    },
    "optionsShowLoginFormIconHelpText": {
        "message": "クリックすることで資格情報を入力できるアイコンをユーザー名フィールドに追加します。",
        "description": "Username field icon option help text."
    },
    "optionsShowOTPIconHelpText": {
        "message": "OTP/2FA として認識した入力フィールドにアイコンを追加します。",
        "description": "OTP field icon option help text."
    },
    "optionsAutoRetrieveCredentialsHelpText": {
        "message": "タブがアクティブになった直後に KeePassXC-Browser が資格情報を読み込みます。",
        "description": "Auto-Retrive Credentials option help text."
    },
    "optionsAutomaticReconnectHelpText": {
        "message": "KeePassXC を検出した際に自動で再接続します。",
        "description": "Auto-reconnect option help text."
    },
    "optionsAutoFillSingleEntryHelpText": {
        "message": "エントリーに対する資格情報が単一の場合は、KeePassXC-Browser に自動入力させます。",
        "description": "Auto-Fill Single Entry option help text."
    },
    "optionsAutoFillRelevantCredentialHelpText": {
        "message": "Automatically fill in the relevant credential if a second fill is needed.",
        "description": "Auto-Fill Relevant Credential option help text."
    },
    "optionsAutoFillSingleEntryWarning": {
        "message": "警告！自動入力は安全ではありません。自己責任で使用してください。KeePassXC-Browser が自動的にログインフィールドを検出しますが、検出に失敗して安全ではない入力フィールドに機密データを入力してしまう可能性があります。",
        "description": "Auto-Fill Single Entry warning text."
    },
    "optionsAutoFillSingleTotpHelpText": {
        "message": "単一のエントリーのみ受信した場合、KeePassXC-Browser に TOTP フィールドを自動で入力させる。",
        "description": "Auto-Fill Single TOTP field option help text."
    },
    "optionsAutocompleteUsernamesHelpText": {
        "message": "ページにあるすべてのユーザー名フィールドに、利用可能な資格情報を含んだドロップダウンリストを表示します。",
        "description": "Autocomplete Usernames option help text."
    },
    "optionsShowGroupNameInAutocompleteHelpText": {
        "message": "複数のグループから資格情報を取得した場合はグループ名を表示します。コンパクトモードのみに影響します。",
        "description": "Show group name in autocomplete help text."
    },
    "optionsShowNotificationsHelpText": {
        "message": "エラーが発生した場合や、ユーザーによる操作が必要な場合は通知を表示します。",
        "description": "Show notifications option help text."
    },
    "optionsUseMonochromeToolbarIconHelpText": {
        "message": "ツールバーでブラウザーのライト/ダークテーマに合ったモノクロアイコン (バッジはカラー) を使用します。",
        "description": "Use monochrome toolbar icon option help text."
    },
    "optionsUseCompactModeHelpText": {
        "message": "資格情報を選択するドロップダウンリストでコンパクト版を使用します。",
        "description": "Use compact (legacy) mode help text."
    },
    "optionsSaveDomainOnlyHelpText": {
        "message": "新しい資格情報を保存する場合、完全な URL の代わりにドメインのみを保存します。",
        "description": "Save domain only option help text."
    },
    "optionsSaveDomainOnlyCustomLoginHelpText": {
        "message": "新しいカスタムログインフィールドを保存する場合、完全な URL の代わりにドメインのみを保存します。",
        "description": "Save domain only option help text."
    },
    "optionsDownloadFaviconAfterSave": {
        "message": "保存後にファビコンをダウンロードする",
        "description": "Download favicon after save checkbox label text."
    },
    "optionsDownloadFaviconAfterSaveHelpText": {
        "message": "新しい資格情報のファビコンを自動的にダウンロードします。",
        "description": "Download favicon after save help text."
    },
    "optionsAutoFillAndSendHelpText": {
        "message": "ページの資格情報が存在し、ログイン方式が HTTP ベーシック認証リクエストの場合、KeePassXC-Browser は最初に受け取った資格情報で自動ログインを試みます。資格情報が複数存在する場合、ポップアップから正しい資格情報を選択できます。この機能が有効になっている場合でも、依然として手動でログインすることは可能です。",
        "description": "Auto-Fill And Send option help text."
    },
    "optionsAutoFillAndSendHelpTextSecond": {
        "message": "HTTP ベーシック認証ダイアログはこのような外観です:",
        "description": "HTTP Basic Auth image help text."
    },
    "optionsClearCredentialsTimeout": {
        "message": "指定時間経過後、非アクティブなタブの資格情報を消去する (0-3600 秒)。",
        "description": "Clear credentials label text."
    },
    "optionsClearCredentialsTimeoutHelpText": {
        "message": "指定した時間が経過するとバックグラウンドタブの資格情報が消去され、そのタブのページの資格情報が再度要求されます。",
        "description": "Clear credentials timeout help text."
    },
    "optionsVersionInfoText": {
        "message": "KeePassXC-Browser は資格情報の読み込みに KeePassXC を必要とします。",
        "description": "Settings page version info text."
    },
    "optionsVersionDownload": {
        "message": "次のアドレスから最新の安定バージョンをダウンロードできます: $1",
        "description": "Settings page download link."
    },
    "optionsVersionRunning": {
        "message": "実行中の KeePassXC のバージョン: $1",
        "description": "Settings page info text of user's KeePassXC version."
    },
    "optionsLatestVersion": {
        "message": "利用可能な KeePassXC の最新バージョン: $1",
        "description": "Settings page info text about the latest KeePassXC version."
    },
    "optionsKeePassXCVersionRequired": {
        "message": "次のバージョンの KeePassXC が必要です: $1",
        "description": "KeePassXC version requirement text."
    },
    "optionsDefault": {
        "message": "デフォルト: $1",
        "description": "Default setting text."
    },
    "optionsInfinite": {
        "message": "無制限: $1",
        "description": "Infinite setting text."
    },
    "optionsRecommended": {
        "message": "推奨: $1",
        "description": "Recommended setting text."
    },
    "optionsShortcutsSuccess": {
        "message": "ショートカット ($1) を無事に変更しました。",
        "description": "Message for successful keyboard shortcut change."
    },
    "optionsShortcutsInfo": {
        "message": "ショートカット ($1) をリセットしました。",
        "description": "Info message for changing keyboard shortcuts."
    },
    "optionsShortcutsDanger": {
        "message": "エラー: ショートカット ($1) は変更されていません。",
        "description": "Error message for changing keyboard shortcuts."
    },
    "optionsImportExportSettings": {
        "message": "設定のインポート/エクスポート",
        "description": "Settings page header text for import/export."
    },
    "optionsImportSettingsDialogTitle": {
        "message": "外部ファイルから設定をインポートしますか？",
        "description": "Import settings confirmation dialog title text."
    },
    "optionsImportSettingsDialogText": {
        "message": "現在の設定を上書きします。本当に設定ファイルをインポートしますか？",
        "description": "Import settings confirmation dialog help text."
    },
    "optionsConnectedDatabasesText": {
        "message": "KeePassXC-Browser に接続されているデータベースです。",
        "description": "Info text about connected databases."
    },
    "optionsConnectedDatabasesNotFound": {
        "message": "接続済みのデータベースはありません。",
        "description": "Shown in the connected databases table when there is no connected databases."
    },
    "optionsDatabasesRemoveIdentifier": {
        "message": "データベースリストから識別子を削除しますか？",
        "description": "Confirmation text when removing database from the list."
    },
    "optionsDatabasesRemoveIdentifierConfirmFirst": {
        "message": "本当にデータベースから識別子 $1 を削除しますか？",
        "description": "Confirmation text when removing database from the list."
    },
    "optionsDatabasesRemoveIdentifierConfirmSecond": {
        "message": "いつでもデータベースに再接続できます。",
        "description": "Confirmation text when removing database from the list, second part."
    },
    "optionsDatabaseIdentifier": {
        "message": "識別子",
        "description": "Database list column title."
    },
    "optionsDatabaseKey": {
        "message": "キー",
        "description": "Database list column title."
    },
    "optionsDatabaseLastUsed": {
        "message": "最終使用日時",
        "description": "Database list column title."
    },
    "optionsDatabaseCreated": {
        "message": "作成日",
        "description": "Database list column title."
    },
    "optionsDatabaseDelete": {
        "message": "削除",
        "description": "Database list column title."
    },
    "optionsColumnPageURL": {
        "message": "ページの URL",
        "description": "Site Preferences list column title."
    },
    "optionsColumnIgnore": {
        "message": "無視",
        "description": "Site Preferences list column title."
    },
    "optionsColumnUsernameOnly": {
        "message": "ユーザー名のみ検出",
        "description": "Site Preferences list column title."
    },
    "optionsColumnImprovedInputFieldDetection": {
        "message": "高度な入力フィールド検出",
        "description": "Improved Input Field Detection column text."
    },
    "optionsColumnAllowIframes": {
        "message": "クロスオリジン iframe を許可する",
        "description": "Allow iframes column text."
    },
    "optionsColumnDelete": {
        "message": "削除",
        "description": "Site Preferences list column title."
    },
    "optionsSelectionNothing": {
        "message": "すべての機能を有効にする",
        "description": "Site Preferences option selection."
    },
    "optionsSelectionNormal": {
        "message": "資格情報の作成/変更を無効にする",
        "description": "Site Preferences option selection."
    },
    "optionsSelectionAutoSubmit": {
        "message": "自動送信を無効にする",
        "description": "Site Preferences option selection."
    },
    "optionsSelectionFull": {
        "message": "すべての機能を無効にする",
        "description": "Site Preferences option selection."
    },
    "optionsSortByTitle": {
        "message": "タイトル",
        "description": "Sort matching credentials by title option selection."
    },
    "optionsSortByUsername": {
        "message": "ユーザー名",
        "description": "Sort matching credentials by username option selection."
    },
    "optionsSortByGroupAndTitle": {
        "message": "グループとタイトル",
        "description": "Sort matching credentials by group and title option selection."
    },
    "optionsSortByGroupAndUsername": {
        "message": "グループとユーザー名",
        "description": "Sort matching credentials by group and username option selection."
    },
    "optionsFillSortPriority": {
        "message": "入力後の資格情報の並び順",
        "description": ""
    },
    "optionsFillSortPriorityHelpText": {
        "message": "関連する資格情報を先頭にするオプションを選択している場合、以前にログインフィールドに入力した資格情報が自動補完メニューの先頭に表示されます。",
        "description": "Help text for Sort credentials after fill."
    },
    "optionsFillSortPriorityTotp": {
        "message": "入力後の資格情報の並び順 (TOTP)",
        "description": ""
    },
    "optionsFillSortPriorityTotpHelpText": {
        "message": "関連する資格情報を先頭にするオプションを選択している場合、以前にログインフィールドに入力した TOTP が自動補完メニューの先頭に表示されます。",
        "description": "Help text for Sort credentials after fill for TOTP."
    },
    "optionsFillSortByMatchingCredentials": {
        "message": "一致した資格情報設定",
        "description": "Default option for Sort after fill. Respects the Matching Credentials sorting setting."
    },
    "optionsFillSortByRelevantEntry": {
        "message": "関連する資格情報を先頭にする",
        "description": "Relevant credential first option for Sort after fill."
    },
    "optionsCustomFieldsNotFound": {
        "message": "保存したカスタムログインフィールドはありません。",
        "description": "Shown when no saved custom credentials are saved."
    },
    "optionsCustomFieldsTableCaption": {
        "message": "この表から保存したカスタムログインフィールドを管理できます。",
        "description": "Table caption of Custom Login Fields page."
    },
    "optionsCustomFieldsTabHelpTextFirst": {
        "message": "KeePassXC-Browser がログインフィールドを間違えて検出した場合は、自分で正しいフィールドを指定できます。",
        "description": "Saved Custom Login Fields info text, first part."
    },
    "optionsCustomFieldsTabHelpTextSecond": {
        "message": "対象のページに移動して KeePassXC-Browser のアイコンをクリックし、次のボタンを選択してください:",
        "description": "Saved Custom Login Fields info text, second part."
    },
    "optionsCustomFieldsTabHelpTextThird": {
        "message": "このページでは保存したカスタムログインフィールドを管理できます。",
        "description": "Saved Custom Login Fields info text, third part."
    },
    "optionsCustomFieldsRemove": {
        "message": "保存したカスタムログインフィールドを削除しますか？",
        "description": "Confirmation text when removing saved Custom Login Fields."
    },
    "optionsCustomFieldsConfirmation": {
        "message": "本当にページ: $1 のカスタムログインフィールドを削除しますか？",
        "description": "Confirmation text when removing saved Custom Login Fields."
    },
    "optionsCustomFieldsConfirmationHelpText": {
        "message": "KeePassXC-Browser は次にこのページに訪問した際に、ログインフィールドを自動検出します。",
        "description": "Part of confirmation text when removing saved Custom Login Fields."
    },
    "optionsSitePreferencesNotFound": {
        "message": "サイト設定がありません。",
        "description": "Shown when no Site Preferences are saved."
    },
    "optionsSitePreferencesRemove": {
        "message": "サイトを削除しますか？",
        "description": "Confirmation text when removing ignored sites from the list."
    },
    "optionsSitePreferencesTabHelpTextFirst": {
        "message": "このページにあるサイトには、特別な処理方法が割り当てられます。",
        "description": "Site Preferences info text, first part."
    },
    "optionsSitePreferencesTabHelpTextSecond": {
        "message": "特定のサイトの新しい資格情報、または変更された資格情報を無視するには、下にある一覧に追加するか、ページ上に表示された資格情報バナーで <em>このサイトでは確認しない</em> を選択してください。　",
        "description": "Site Preferences info text, second part."
    },
    "optionsSitePreferencesTabHelpTextThird": {
        "message": "サイトを完全に無視する (「<em>すべての機能を無効にする</em>」を選択している) 場合は、そのサイトを訪問してもプラグインは何もしません。",
        "description": "Site Preferences info text, third part."
    },
    "optionsSitePreferencesTabHelpTextFourth": {
        "message": "ユーザー名のみ検出オプションにより、ユーザー名とパスワードが別々のページに分かれているウェブサイトで KeePassXC-Browser がログイン情報を補完できるようになります。",
        "description": "Site Preferences info text, fourth part."
    },
    "optionsSitePreferencesImprovedInputFieldDetectionHelpText": {
        "message": "高度な入力フィールド検出オプションにより、さらに詳細な入力フィールドの動的検出ができるようになります。ただし、ページのパフォーマンスに影響を与える可能性があり、使用には注意が必要です。",
        "description": "Improved Input Field Detection help text."
    },
    "optionsSitePreferencesAllowIframesHelpText": {
        "message": "クロスオリジン iframe を許可すると、別のドメインからの iframe の資格情報が取得可能になります。自己責任で使用してください。",
        "description": "Allow Cross-Origin iframes help text."
    },
    "optionsSitePreferencesManualAddText": {
        "message": "URL を手動で追加",
        "description": "Label for adding site manually on Site Preferences tab."
    },
    "optionsSitePreferencesManualAddHelp": {
        "message": "URL は <code>https://</code>、<code>http://</code>、<code>file://</code>、<code>ftp://</code> のいずれかで始まり、5 文字以上である必要があります。",
        "description": "Help text for adding site manually on Site Preferences tab."
    },
    "optionsSitePreferencesConfirmation": {
        "message": "本当にサイト: $1 をリストから削除しますか？",
        "description": "Confirmation text when removing site from Site Preferences."
    },
    "optionsSitePreferencesConfirmationHelpText": {
        "message": "KeePassXC-Browser はユーザー名のみ検出オプションを削除し、このサイトですべての機能を有効にします。",
        "description": "Part of confirmation text when removing Site Preferences."
    },
    "optionsSitePreferencesTableCaption": {
        "message": "この表から保存したサイト設定を管理できます。",
        "description": "Table caption of Site Preferences page."
    },
    "optionsSitePreferencesSelect": {
        "message": "ページで拡張機能の機能を無視するためのオプションです。",
        "description": "Title text of select element in Site Preferences."
    },
    "optionsAboutChrome": {
        "message": "Chrome ウェブストアの KeePassXC-Browser 配布ページを開く。",
        "description": "About page link to Chrome Web Store."
    },
    "optionsAboutMozilla": {
        "message": "Mozilla Add-ons の KeePassXC-Browser 配布ページを開く。",
        "description": "About page link to AMO."
    },
    "optionsAboutEdge": {
        "message": "Edge Add-ons の KeePassXC-Browser 配布ページを開く。",
        "description": "About page link to Edge Add-ons page."
    },
    "optionsAboutGitHub": {
        "message": "GitHub の KeePassXC-Browser プロジェクトページを開く。",
        "description": "About page link to GitHub."
    },
    "optionsAboutExtensionVersion": {
        "message": "KeePassXC-Browser のバージョン: $1",
        "description": "About page text of extension version."
    },
    "optionsAboutKeePassXCVersion": {
        "message": "KeePassXC のバージョン: $1",
        "description": "About page text of KeePassXC version."
    },
    "optionsAboutContributors": {
        "message": "貢献者",
        "description": "About page text of contributors."
    },
    "optionsAboutLicenses": {
        "message": "ライセンス",
        "description": "About page text of licenses."
    },
    "optionsAboutReportBugs": {
        "message": "バグ報告",
        "description": "About page text of reporting bugs."
    },
    "optionsAboutCreateNewIssue": {
        "message": "GitHub で問題を報告する。",
        "description": "Link text for creating a new issue."
    },
    "optionsAboutDebugInfo": {
        "message": "次の情報を含めてください",
        "description": "Debug info text."
    },
    "optionsAboutSupporters": {
        "message": "サポーター",
        "description": "Supporters label text."
    },
    "optionsErrorInvalidValue": {
        "message": "不正な値です。入力を確認してください。",
        "description": "Error shown when input field has an incorrect value."
    },
    "optionsErrorInvalidURL": {
        "message": "不正な URL です。入力を確認してください。",
        "description": "Error shown when input field has an incorrect URL."
    },
    "optionsErrorValueExists": {
        "message": "その値は既にリストに存在します。",
        "description": "Error shown when trying to add a duplicate value to the list."
    },
    "optionsUserInterfaceTitle": {
        "message": "ユーザーインターフェース",
        "description": "User interface title in settings page"
    },
    "optionsFillingCredentialsTitle": {
        "message": "資格情報の入力",
        "description": "Filling credentials title in settings page"
    },
    "optionsSavingCredentialsTitle": {
        "message": "資格情報の保存",
        "description": "Saving credentials title in settings page"
    },
    "optionsUpdatesTitle": {
        "message": "更新",
        "description": "Updates title in settings page"
    },
    "optionsAdvancedSettingsTitle": {
        "message": "高度な設定",
        "description": "Advanced settings title in settings page"
    },
    "optionsExtensionTitle": {
        "message": "拡張機能",
        "description": "Extension title in settings page"
    },
    "optionsPasskeysTitle": {
        "message": "パスキー",
        "description": "Passkeys settings title in settings page."
    },
    "optionsPasskeysEnable": {
        "message": "パスキーを有効にする",
        "description": "Enabled passkeys option text."
    },
    "optionsPasskeysEnableHelpText": {
        "message": "ウェブ認証への対応を有効にします。",
        "description": "Passkeys option help text."
    },
    "optionsPasskeysEnableFallback": {
        "message": "パスキーのフォールバックを有効にする",
        "description": "Enabled passkeys fallback option text."
    },
    "optionsPasskeysEnableFallbackHelpText": {
        "message": "有効にすると、KeePassXC へのリクエストに失敗したりキャンセルされた場合に、ブラウザー内部のパスキーリクエストを開始します。無効にすると KeePassXC への接続が必須になり、リクエストをキャンセルすると登録失敗になります。デフォルト: 有効。",
        "description": "Passkeys fallback option help text."
    },
    "openNewTab": {
        "message": "新しいタブを開く",
        "description": "Title attribute text."
    },
    "httpAuthDialog": {
        "message": "HTTP ベーシック認証ダイアログ",
        "description": "Options page HTTP Basic Auth dialog text"
    },
    "autocompleteSubmitMessage": {
        "message": "選択したものを自動送信します",
        "description": "Message shown at the bottom of autocomplete menu."
    },
    "lockDatabase": {
        "message": "データベースをロック",
        "description": "Lock database button title text."
    }
}
